{
	"show_results": false,
	"summary": "hide",
	"results_format": "individual",
	"title": "Тестовые задания",
	"start_time": "2016-03-17T00:00:00",
	"users_attributes": {
		"first_name": {
			"required": false,
			"title": "Имя",
			"type": "str"
		},
		"second_name": {
			"required": false,
			"title": "Отчество",
			"type": "str"
		},
		"last_name": {
			"required": false,
			"title": "Фамилия",
			"type": "str"
		},
		"class": {
			"required": false,
			"title": "Класс",
			"type": "str"
		},
		"school": {
			"required": false,
			"title": "Школа",
			"type": "str"
		},
		"birthday": {
			"required": false,
			"title": "Дата рождения",
			"type": "str"
		},
		"teacher": {
			"required": false,
			"title": "Учитель",
			"type": "str"
		}
	},
	"freeze_time": "2015-12-19T23:59:59",
	"registration_enabled": false,
	"statement_file": "statements_09.pdf",
	"testing": "started",
	"end_time": "2016-12-19T23:59:59",
	"password": "admin"
}