﻿{
	"brief_name": "A. Длина пути (поиск в ширину)",
	"name": "A. Длина пути (поиск в ширину)",
	"timeout": 2,
	"input_file": "input.txt",
	"output_file": "output.txt",
	"preliminary": [
	],
	"test_suites": {
		"subtask1": {
			"name": "Подзадача 1",
			"scoring": "partial",
			"test_score": 10,
			"results": "full"
		}
	}
}